编号	入口名字	最低等级	最高等级	GM等级要求	门派要求	完成过任务	接受了任务	最低任务数据	最高任务数据	物品需求编号	最小物品数量	最大物品数量	要列出的任务组编号	是否会给任务	话语的显示文字	文字颜色(16进制)	选项文字1	选项命令1	选项文字2	选项命令2	选项文字3	选项命令3	选项文字4	选项命令4	选项文字5	选项命令5	选项文字6	选项命令6
id	name	minLevel	maxLevel	gmGrade	race	taskDone	taskDoing	minTaskData	maxTaskData	requiredGoodsID	minGoodsCount	maxGoodsCount	listTaskGroup	offerTask	text	color	options	commands	options	commands	options	commands	options	commands	options	commands	options	commands
0	等级不够	0	20	0	-1	0	0	0	0	0	0	0	0	0	你好，$heroName！\n聚仙镇高手云集，人才济济。我们每天都举行竞技大会，让大家较量武艺。不过，需要20级以上才可以参加，你的等级还不够，先去升级吧。	0	我知道啦											
1	还没开始	0	99	0	-1	0	0	0	0	0	0	0	0	0	你好，$heroName！\n聚仙镇每日一次的竞技比武大会将在每天晚上21点到22点举行，通过比武你不仅可以获得丰厚的奖励，还有机会成为大众偶像。\n活动现在还没有开始，你到时来参加吧。	0	我知道啦											
2	已经结束	0	99	0	-1	0	0	0	0	0	0	0	0	0	你好，$heroName！\n聚仙镇每日一次的比武大会已经结束了，你明天再来吧。	0	我知道啦											
3	竞技场1	21	30	0	-1	0	0	0	0	0	0	0	0	0	你好，$heroName！\n聚仙镇每日一次的比武大会已经开始了！你想展示自己的实力吗？你想获得丰厚的奖励吗？你想要成为偶像级人物吗？那就来参加比武大会，抓紧时间报名吧！	0	我要报名参加	goto:报名1										
4	竞技场2	31	40	0	-1	0	0	0	0	0	0	0	0	0	你好，$heroName！\n聚仙镇每日一次的比武大会已经开始了！你想展示自己的实力吗？你想获得丰厚的奖励吗？你想要成为偶像级人物吗？那就来参加比武大会，抓紧时间报名吧！	0	我要报名参加	goto:报名2										
5	报名1	21	30	0	-1	0	0	0	0	0	0	0	0	0	报名需要5000金币，确定要报名吗？	0	确定啦！	sign										
6	报名2	31	40	0	-1	0	0	0	0	0	0	0	0	0	报名需要10000金币，确定要报名吗？	0	确定啦！	sign										
7	领奖	0	40	0	-1	0	0	0	0	0	0	0	0	0	恭喜你，$heroName！在竞技场的比武活动，你表现英勇，值得嘉奖。	0	领取奖励	getPrize										
8	没有奖励	0	40	0	-1	0	0	0	0	0	0	0	0	0	很可惜，你没有得到好成绩，所以没有你的奖励。不过贵在参与，你的精神仍然是可嘉的。	0	废话啊											
9	比赛进行中	0	40	0	-1	0	0	0	0	0	0	0	0	0	比武大会的比赛正在进行中，结果还没有揭晓。	0	等等再来											
