编号	入口名字	最低等级	最高等级	GM等级要求	门派要求	完成过任务	接受了任务	最低任务数据	最高任务数据	物品需求编号	最小物品数量	最大物品数量	要列出的任务组编号	是否可能赋予任务	话语的显示文字	文字颜色(16进制)	选项文字1	选项命令1	选项文字2	选项命令2	选项文字3	选项命令3	选项文字4	选项命令4	选项文字5	选项命令5	选项文字6	选项命令6
id	name	minLevel	maxLevel	gmGrade	race	taskDone	taskDoing	minTaskData	maxTaskData	requiredGoodsID	minGoodsCount	maxGoodsCount	listTaskGroup	offerTask	text	color	options	commands	options	commands	options	commands	options	commands	options	commands	options	commands
1	提交腐尸兽Ⅰ	0	100	0	-1	0	1550000001	1	1	0	0	0	0	0	不错，这么快就搞定了。	ffffff	提交任务	completeTask:1550000001										
2	提交腐尸兽Ⅱ	0	100	0	-1	0	1550000002	1	1	0	0	0	0	0	不错，这么快就搞定了。	ffffff	提交任务	completeTask:1550000002										
3	提交腐尸兽Ⅲ	0	100	0	-1	0	1550000003	1	1	0	0	0	0	0	不错，这么快就搞定了。	ffffff	提交任务	completeTask:1550000003										
4	提交腐尸兽Ⅳ	0	100	0	-1	0	1550000004	1	1	0	0	0	0	0	不错，这么快就搞定了。	ffffff	提交任务	completeTask:1550000004										
5	闲聊1	0	100	0	-1	1510000521	1550000001	0	0	0	0	0	0	0	想获得回复精力的药剂，就快点去完成我给你的任务吧！	ffffff	好了，好了，我知道了！											
6	闲聊2	0	100	0	-1	1510000521	1550000002	0	0	0	0	0	0	0	想获得回复精力的药剂，就快点去完成我给你的任务吧！	ffffff	好了，好了，我知道了！											
7	闲聊3	0	100	0	-1	1510000521	1550000003	0	0	0	0	0	0	0	想获得回复精力的药剂，就快点去完成我给你的任务吧！	ffffff	好了，好了，我知道了！											
8	闲聊4	0	100	0	-1	1510000521	1550000004	0	0	0	0	0	0	0	想获得回复精力的药剂，就快点去完成我给你的任务吧！	ffffff	好了，好了，我知道了！											
9	讨厌的腐尸兽Ⅰ	20	25	0	-1	1510000521	0	0	0	0	0	0	0	1	你现在的能力已经在我之上，我无法为你回复精力了。不过我这里有不少增加精力的药剂，你去帮我杀掉腐尸小妖，事成之后我会将药剂给你。	ffffff	好的，我这就去！	giveTask:1550000001										
10	讨厌的腐尸兽Ⅱ	26	30	0	-1	1510000521	0	0	0	0	0	0	0	1	你现在的能力已经在我之上，我无法为你回复精力了。不过我这里有不少增加精力的药剂，你去帮我杀掉腐尸精，事成之后我会将药剂给你。	ffffff	好的，我这就去！	giveTask:1550000002										
11	讨厌的腐尸兽Ⅲ	31	35	0	-1	1510000521	0	0	0	0	0	0	0	1	你现在的能力已经在我之上，我无法为你回复精力了。不过我这里有不少增加精力的药剂，你去帮我杀掉魔化腐尸，事成之后我会将药剂给你。	ffffff	好的，我这就去！	giveTask:1550000003										
12	讨厌的腐尸兽Ⅳ	36	40	0	-1	1510000521	0	0	0	0	0	0	0	1	你现在的能力已经在我之上，我无法为你回复精力了。不过我这里有不少增加精力的药剂，你去帮我杀掉凶咒腐尸怪，事成之后我会将药剂给你。	ffffff	好的，我这就去！	giveTask:1550000004										
13	回复精力	0	19	0	-1	1510000521	0	0	0	0	0	0	1521000035	2	回复精力有多种方式，20级以前可以在我这里免费回复，20级以后可以通过完成我的任务来换取精力药剂，在安全区域休息也可以回复精力，更便捷的方法是在商城中购买回复精力的药剂。	ffffff	请为我恢复精力！	increaseStamina:60000										
14	回复精力	0	100	0	-1	0	1510000521	0	1000	0	0	0	1521000035	2	回复精力有多种方式，20级以前可以在我这里免费回复，20级以后可以通过完成我的任务来换取精力药剂，在安全区域休息也可以回复精力，更便捷的方法是在商城中购买回复精力的药剂。	ffffff	请为我恢复精力！	increaseStamina:60000										
15	遁界迷仙	0	100	0	-1	1510000520	0	0	0	0	0	0	0	0	我来到此处，是为了帮助那些杀妖除魔的勇士们提高精力抗击魔王的。	ffffff	不知前辈是怎么办到的	goto:遁界迷仙1										
16	遁界迷仙1	0	0	0	-1	0	0	0	0	0	0	0	0	1	所为天机不可泄露也。我会通过神秘的法术注满你的精力，让你获得最好的根骨状态去和妖魔搏斗，以此抗击魔神。不过据我所知这里还有一位秘道守卫青火，他似乎会帮助你们去神秘的地域接受试练，你不妨去看看。	ffffff	明白了	giveTask:1510000521										
17	提交神力尊者	0	100	0	-1	0	1510000520	0	0	0	0	0	0	0	你也是修真之徒吗？	ffffff	是的。	completeTask:1510000520										
18	开始	0	100	0	-1	0	0	0	0	0	0	0	1521000035	2	我风流倜傥、玉树临风，你有什么事吗？	ffffff	没事……											
19	闲聊11	0	100	0	-1	1550000001	0	0	0	0	0	0	0	0	完成过1	ffffff	完成过1											
20	闲聊22	0	100	0	-1	1550000002	0	0	0	0	0	0	0	0	完成过2	ffffff	完成过2											
21	闲聊33	0	100	0	-1	1550000003	0	0	0	0	0	0	0	0	完成过3	ffffff	完成过3											
22	闲聊44	0	100	0	-1	1550000004	0	0	0	0	0	0	0	0	完成过4	ffffff	完成过4											
