编号	入口名字	最低等级	最高等级	GM等级要求	门派要求	完成过任务	接受了任务	最低任务数据	最高任务数据	物品需求编号	最小物品数量	最大物品数量	要列出的任务组编号	是否会给任务	话语的显示文字	文字颜色(16进制)	选项文字1	选项命令1	选项文字2	选项命令2	选项文字3	选项命令3	选项文字4	选项命令4	选项文字5	选项命令5	选项文字6	选项命令6
id	name	minLevel	maxLevel	gmGrade	race	taskDone	taskDoing	minTaskData	maxTaskData	requiredGoodsID	minGoodsCount	maxGoodsCount	listTaskGroup	offerTask	text	color	options	commands	options	commands	options	commands	options	commands	options	commands	options	commands
1	2	0	100	0	-1	1510000461	0	0	0	0	0	0	0	0	呼……累死我了。	ffffff	那你歇歇气，接下来的交给我了。											
2	南边阵破闲聊	0	100	0	-1	0	1510000461	0	1000	0	0	0	0	0	终于可以松口气了，还好今天师傅在，不然我们就危险了，师傅为了支持这个阵耗费了很多法力，这个阵真厉害。	ffffff	是啊。											
3	南边阵破1	0	100	0	-1	1510000460	0	0	0	0	0	0	0	1	现在阵眼朝南，你要以雷霆万钧之势去破除南边的阵结界。	ffffff	为什么是南边呢？	goto:南边阵破2										
4	南边阵破2	0	0	0	-1	0	0	0	0	0	0	0	0	1	巫往就守在南边，你消灭她然后去找张倩。让聚仙镇的密道守卫青火送你去巫秘洞，巫往就在第19层。	ffffff	好的。	giveTask:1510000461										
5	提交再接再厉	0	100	0	-1	0	1510000460	1	1000	0	0	0	0	0	看不出你修为这么高，这么容易就能打败巫族。你不是已经受了内伤随时会发作倒毙吧。	ffffff	完成任务	completeTask:1510000460										
6	1	0	100	0	-1	1510000452	0	0	0	0	0	0	0	0	有什么不懂的就来问我吧。	ffffff	我就没见过谁眼睛像你这样骨碌骨碌转的那么快的。											
7	互送重礼闲聊	0	100	0	-1	0	1510000452	0	1000	0	0	0	0	0	怎么还没有去呢？不认识路吗？你张嘴不会问吗？	ffffff	……鬼灵精。											
8	互送重礼1	0	100	0	-1	1510000451	0	0	0	0	0	0	0	1	哦，原来是这个事情啊，很简单啊。哈哈我有办法了。	ffffff	就知道你鬼点子多。	goto:互送重礼2										
9	互送重礼2	0	0	0	-1	0	0	0	0	0	0	0	0	1	那是啊。你看，我们蓬莱弟子一向都很朴素，衣衫单薄，所以可以互送兽皮，用以御寒，两尊者一定都会很高兴。据说迷雾山中有一种迷雾猛虎，身上的皮厚而棉，去那里的白虎身上收集30张迷雾虎皮，然后给木叶子丁一送去吧。	ffffff	折腾我……	giveTask:1510000452										
10	提交平原除狼	0	100	0	-1	0	1510000451	40	1000	0	0	0	0	0	师兄，你杀狼的姿势好酷哦。	ffffff	完成任务	completeTask:1510000451										
11	开始	0	100	0	-1	0	0	0	0	0	0	0	0	0	我在练习新的招式，我给它取名叫“杀破狼”，你说好不好听？	ffffff	……好听。											
