编号	入口名字	最低等级	最高等级	GM等级要求	门派要求	完成过任务	接受了任务	最低任务数据	最高任务数据	物品需求编号	最小物品数量	最大物品数量	要列出的任务组编号	是否会给任务	话语的显示文字	文字颜色(16进制)	选项文字1	选项命令1	选项文字2	选项命令2	选项文字3	选项命令3	选项文字4	选项命令4	选项文字5	选项命令5	选项文字6	选项命令6
id	name	minLevel	maxLevel	gmGrade	race	taskDone	taskDoing	minTaskData	maxTaskData	requiredGoodsID	minGoodsCount	maxGoodsCount	listTaskGroup	offerTask	text	color	options	commands	options	commands	options	commands	options	commands	options	commands	options	commands
1	2	0	100	0	-1	1510000199	0	0	0	0	0	0	0	0	难道那小子会上天入地不成？我一定要找出来好生教训一顿！	ffffff	……											
2	传送	0	100	0	-1	1510000197	0	0	0	0	0	0	0	1	嘿嘿，小子！算你点背，我家主人正在寻找魔兽的食物，你身板不错……	ffffff	你说什么？？啊，我的头……	createPersonalDuplicate:305:0										
3	传送	0	100	0	-1	0	1510000197	0	1	0	0	0	0	1	嘿嘿，小子！算你点背，我家主人正在寻找魔兽的食物，你身板不错……	ffffff	你说什么？？啊，我的头……	createPersonalDuplicate:305:0										
4	失手被擒	0	100	0	-1	1510000196	0	0	0	0	0	0	0	1	大侠，我们只是奉命行事啊！	ffffff	说，是谁派你们来的！啊 ，头……	giveTask:1510000197;createPersonalDuplicate:305:0										
5	提交假扮	0	100	0	-1	0	1510000196	1	1	0	0	0	0	0	啊啊！大侠饶命，不关我的事啊！	ffffff	魔族余孽，竟然假扮三派中人，死有余辜！	completeTask:1510000196										
6	0	0	100	0	-1	0	0	0	0	0	0	0	0	0	让开让开！刀剑可是不长眼睛的呃！	ffffff	……											
