道具编号	物品名字	掉落率	是否组队共享	是否全场景共享	是否直接掉到背包	要修改的属性字段名	最小属性值	最大属性值
goodsId	name	dropRate	teamMode	sceneMode	intoDepot	fieldToSet	minValue	maxValue
1240000025	盾牌	4	0	0	0	maxRefinedTimes	3	6
1240000027	盾牌	8	0	0	0	maxRefinedTimes	3	6
1240000029	盾牌	12	0	0	0	maxRefinedTimes	3	6
1250000027	裤子	19	0	0	0	maxRefinedTimes	3	6
1250000028	裤子	26	0	0	0	maxRefinedTimes	3	6
1260000026	手套	33	0	0	0	maxRefinedTimes	3	6
1260000028	手套	40	0	0	0	maxRefinedTimes	3	6
1230000026	头盔	47	0	0	0	maxRefinedTimes	3	6
1230000027	头盔	54	0	0	0	maxRefinedTimes	3	6
1210000095	武器	58	0	0	0	maxRefinedTimes	3	6
1210000101	武器	62	0	0	0	maxRefinedTimes	3	6
1210000107	武器	66	0	0	0	maxRefinedTimes	3	6
1270000026	鞋	73	0	0	0	maxRefinedTimes	3	6
1270000027	鞋	80	0	0	0	maxRefinedTimes	3	6
1220000026	衣服	87	0	0	0	maxRefinedTimes	1	5
1220000027	衣服	94	0	0	0	maxRefinedTimes	1	5
