道具编号	物品名字	掉落率	是否组队共享	是否全场景共享	是否直接掉到背包	要修改的属性字段名	最小属性值	最大属性值
goodsId	name	dropRate	teamMode	sceneMode	intoDepot	fieldToSet	minValue	maxValue
1240000028	0	150	0	0	0	0	0	0
1250000029	0	300	0	0	0	0	0	0
1260000029	0	450	0	0	0	0	0	0
1270000029	0	600	0	0	0	maxRefinedTimes	5	10
1210000099	0	750	0	0	0	maxRefinedTimes	5	10
1210000094	0	900	0	0	0	maxRefinedTimes	5	10
1210000106	0	1050	0	0	0	maxRefinedTimes	5	10
