道具编号	物品名字	掉落率	是否组队共享	是否全场景共享	是否直接掉到背包	要修改的属性字段名	最小属性值	最大属性值
goodsId	name	dropRate	teamMode	sceneMode	intoDepot	fieldToSet	minValue	maxValue
1220000035	0	200	0	0	0	maxRefinedTimes	5	10
1230000035	0	400	0	0	0	maxRefinedTimes	5	10
1240000034	0	600	0	0	0	maxRefinedTimes	5	10
1250000035	0	800	0	0	0	maxRefinedTimes	5	10
1260000035	0	1000	0	0	0	maxRefinedTimes	5	10
