道具编号	物品名字	掉落率	是否组队共享	是否全场景共享	是否直接掉到背包	要修改的属性字段名	最小属性值	最大属性值
goodsId	name	dropRate	teamMode	sceneMode	intoDepot	fieldToSet	minValue	maxValue
1220000021	蓝衣服22	200	0	0	0	maxRefinedTimes	1	5
1230000021	蓝头盔23	400	0	0	0	maxRefinedTimes	1	5
1260000012	蓝盾牌24	600	0	0	0	maxRefinedTimes	1	5
1250000022	蓝裤子25	800	0	0	0	maxRefinedTimes	1	5
1260000021	蓝手套26	1000	0	0	0	maxRefinedTimes	1	5
1270000021	蓝鞋27	1200	0	0	0	maxRefinedTimes	1	5
1220000026	蓝衣服29	1400	0	0	0	maxRefinedTimes	1	5
1230000027	蓝头盔30	1600	0	0	0	maxRefinedTimes	1	5
