道具编号	物品名字	掉落率	是否组队共享	是否全场景共享	是否直接掉到背包	要修改的属性字段名	最小属性值	最大属性值
goodsId	name	dropRate	teamMode	sceneMode	intoDepot	fieldToSet	minValue	maxValue
1200010003	武器3	1	0	0	0	0	0	0
1200010007	盾牌3	2	0	0	0	0	0	0
1200010011	裤子3	3	0	0	0	0	0	0
1200010015	衣服3	4	0	0	0	0	0	0
1200010019	头盔3	5	0	0	0	0	0	0
1200010023	手套3	6	0	0	0	0	0	0
1200010027	鞋子3	7	0	0	0	0	0	0
