道具编号	物品名字	掉落率	是否组队共享	是否全场景共享	是否直接掉到背包	要修改的属性字段名	最小属性值	最大属性值
goodsId	name	dropRate	teamMode	sceneMode	intoDepot	fieldToSet	minValue	maxValue
1240000034	金盾牌	184	0	0	0	maxRefinedTimes	6	10
1250000035	金裤子	368	0	0	0	maxRefinedTimes	6	10
1260000035	金手套	552	0	0	0	maxRefinedTimes	6	10
1230000035	金头盔	736	0	0	0	maxRefinedTimes	6	10
1220000035	金衣服	920	0	0	0	maxRefinedTimes	6	10
1200600167	金币袋（38级）	3920	0	0	0	0	0	0
1200600207	经验袋（38级）	6420	0	0	0	0	0	0
1220000031	白衣	6820	0	0	0	0	0	0
1260000031	白手	7220	0	0	0	0	0	0
1230000031	白头	7620	0	0	0	0	0	0
1240000032	白盾	8020	0	0	0	0	0	0
1250000032	白腿	8420	0	0	0	0	0	0
1220000033	蓝衣	8720	0	0	0	maxRefinedTimes	6	10
1260000033	蓝手	9020	0	0	0	maxRefinedTimes	6	10
1230000033	蓝头	9320	0	0	0	maxRefinedTimes	6	10
1240000033	蓝盾	9620	0	0	0	maxRefinedTimes	6	10
1250000033	蓝裤	9920	0	0	0	maxRefinedTimes	6	10
1220000036	暗金衣	9936	0	0	0	maxRefinedTimes	6	10
1260000036	暗金手	9952	0	0	0	maxRefinedTimes	6	10
1230000036	暗金头	9968	0	0	0	maxRefinedTimes	6	10
1240000036	暗金盾	9984	0	0	0	maxRefinedTimes	6	10
1250000036	暗金裤	10000	0	0	0	maxRefinedTimes	6	10